<svg xmlns="http://www.w3.org/2000/svg" width="21" height="18" viewBox="0 0 21 18">
    <g fill="#6D838F" fill-rule="evenodd">
        <path d="M3.35 9.963h11.37a.989.989 0 0 0 .98-.996c0-.55-.439-.996-.98-.996H3.35l1.27-1.289c.382-.389.382-1.02 0-1.409a.97.97 0 0 0-1.389 0L.288 8.263a.983.983 0 0 0-.066.073c-.009.01-.016.022-.025.034l-.032.044-.025.042c-.008.014-.017.027-.024.041l-.021.045-.02.044-.016.044-.017.048-.01.044c-.005.017-.01.033-.013.05l-.008.052-.006.045A1.017 1.017 0 0 0 0 8.965v.003c0 .033.002.065.005.097.001.015.004.03.006.044l.008.053.012.049.011.045.017.047.016.045.02.043.021.046.023.04.026.043.03.042.027.036c.02.025.04.048.062.07l.003.003 2.944 2.99a.97.97 0 0 0 1.388 0c.383-.39.383-1.02 0-1.41L3.35 9.963z"/>
        <path d="M19.953 0H7.523a.989.989 0 0 0-.98.996v3.986c0 .55.439.996.98.996a.989.989 0 0 0 .982-.996v-2.99h10.467v13.949H8.505v-2.989c0-.55-.44-.996-.982-.996a.989.989 0 0 0-.98.996v3.985c0 .55.439.997.98.997h12.43a.989.989 0 0 0 .982-.997V.997c0-.55-.44-.997-.982-.997z"/>
    </g>
</svg>
